{
  "level":
  {
    "name": "Level 1",
    "backgrounds_number": 1,
    "backgrounds": 
    [
      {
        "texture": 3,
        "order": 0,
        "repeat": true,
        "time": 1.0
      },
      {
        "texture": 4,
        "order": 1,
        "repeat": true,
        "time": 1.0
      }
    ],
    "points":
    [
      {
        "name": "follower",
        "x": 256,
        "y": 850
    },
      {
          "name": "spawn",
          "x": 256,
          "y": 960
      },
      {
          "name": "halt",
          "x": 256,
          "y": 40
      }
    ],
    "enemies":
    [
    ]
  }
}
